// Jest Snapshot v1, https://goo.gl/fbAQLP

exports[`Loader render loader 1`] = `
<div>
  <div
    class="spinner-border text-primary"
    role="status"
  >
    <span
      class="sr-only"
    >
      Loading...
    </span>
  </div>
</div>
`;

exports[`Loader render with children 1`] = `
<div>
  <p>
    test
  </p>
</div>
`;

exports[`Loader render with no children 1`] = `<div />`;
